python/digital_modelling/test.vcd
$date
	Sat Mar  4 16:42:13 2023
$end
$version
	Icarus Verilog
$end
$timescale
	1s
$end
$scope module top_tb $end
$var reg 1 $  clk  $end
$var reg 1 *  inc  $end
$var reg 7 (  counter [6:0] $end
$enddefinitions $end
#0
b1 $
b0 *
b0 (
#5
b0 $
#10
b1 $
b1 *
b0 (
#15
b0 $
#20
b1 $
b1 *
b1 (
#25
b0 $
#30
b1 $
b1 *
b10 (
#35
b0 $
#40
b1 $
b1 *
b11 (
#45
b0 $
#50
b1 $
b1 *
b100 (
#55
b0 $
#60
b1 $
b1 *
b101 (
#65
b0 $
#70
b1 $
b0 *
b110 (
#75
b0 $
#80
b1 $
b0 *
b110 (
#85
b0 $
#90
b1 $
b1 *
b110 (
#95
b0 $
#100
b1 $
b1 *
b111 (
#105
b0 $
#110
b1 $
b1 *
b1000 (
#115
b0 $
#120
b1 $
b0 *
b1001 (
#125
b0 $
#130
b1 $
b0 *
b1001 (
#135
b0 $
#140
b1 $
b1 *
b1001 (
#145
b0 $
#150
b1 $
b1 *
b1010 (
#155
b0 $
#160
b1 $
b1 *
b1011 (
#165
b0 $
#170
b1 $
b1 *
b1100 (
#175
b0 $
#180
b1 $
b0 *
b1101 (
#185
b0 $
#190
b1 $
b0 *
b1101 (
#195
b0 $
#200
b1 $
b1 *
b1101 (
#205
b0 $
#210
b1 $
b0 *
b1110 (
#215
b0 $
#220
b1 $
b0 *
b1110 (
#225
b0 $
#230
b1 $
b0 *
b1110 (
#235
b0 $
#240
b1 $
b0 *
b1110 (
#245
b0 $
#250
b1 $
b0 *
b1110 (
#255
b0 $
#260
b1 $
b1 *
b1110 (
#265
b0 $
#270
b1 $
b1 *
b1111 (
#275
b0 $
#280
b1 $
b0 *
b10000 (
#285
b0 $
#290
b1 $
b0 *
b10000 (
#295
b0 $
#300
b1 $
b0 *
b10000 (
#305
b0 $
#310
b1 $
b1 *
b10000 (
#315
b0 $
#320
b1 $
b0 *
b10001 (
#325
b0 $
#330
b1 $
b1 *
b10001 (
#335
b0 $
#340
b1 $
b1 *
b10010 (
#345
b0 $
#350
b1 $
b1 *
b10011 (
#355
b0 $
#360
b1 $
b0 *
b10100 (
#365
b0 $
#370
b1 $
b0 *
b10100 (
#375
b0 $
#380
b1 $
b1 *
b10100 (
#385
b0 $
#390
b1 $
b0 *
b10101 (
#395
b0 $
#400
b1 $
b1 *
b10101 (
#405
b0 $
#410
b1 $
b1 *
b10110 (
#415
b0 $
#420
b1 $
b1 *
b10111 (
#425
b0 $
#430
b1 $
b1 *
b11000 (
#435
b0 $
#440
b1 $
b1 *
b11001 (
#445
b0 $
#450
b1 $
b0 *
b11010 (
#455
b0 $
#460
b1 $
b1 *
b11010 (
#465
b0 $
#470
b1 $
b0 *
b11011 (
#475
b0 $
#480
b1 $
b0 *
b11011 (
#485
b0 $
#490
b1 $
b1 *
b11011 (
#495
b0 $
#500
b1 $
b1 *
b11100 (
#505
b0 $
#510
b1 $
b0 *
b11101 (
#515
b0 $
#520
b1 $
b1 *
b11101 (
#525
b0 $
#530
b1 $
b1 *
b11110 (
#535
b0 $
#540
b1 $
b1 *
b11111 (
#545
b0 $
#550
b1 $
b1 *
b100000 (
#555
b0 $
#560
b1 $
b1 *
b100001 (
#565
b0 $
#570
b1 $
b0 *
b100010 (
#575
b0 $
#580
b1 $
b0 *
b100010 (
#585
b0 $
#590
b1 $
b0 *
b100010 (
#595
b0 $
#600
b1 $
b1 *
b100010 (
#605
b0 $
#610
b1 $
b1 *
b100011 (
#615
b0 $
#620
b1 $
b1 *
b100100 (
#625
b0 $
#630
b1 $
b1 *
b100101 (
#635
b0 $
#640
b1 $
b0 *
b100110 (
#645
b0 $
#650
b1 $
b1 *
b100110 (
#655
b0 $
#660
b1 $
b1 *
b100111 (
#665
b0 $
#670
b1 $
b0 *
b101000 (
#675
b0 $
#680
b1 $
b1 *
b101000 (
#685
b0 $
#690
b1 $
b1 *
b101001 (
#695
b0 $
#700
b1 $
b1 *
b101010 (
#705
b0 $
#710
b1 $
b1 *
b101011 (
#715
b0 $
#720
b1 $
b0 *
b101100 (
#725
b0 $
#730
b1 $
b0 *
b101100 (
#735
b0 $
#740
b1 $
b1 *
b101100 (
#745
b0 $
#750
b1 $
b1 *
b101101 (
#755
b0 $
#760
b1 $
b1 *
b101110 (
#765
b0 $
#770
b1 $
b0 *
b101111 (
#775
b0 $
#780
b1 $
b1 *
b101111 (
#785
b0 $
#790
b1 $
b0 *
b110000 (
#795
b0 $
#800
b1 $
b1 *
b110000 (
#805
b0 $
#810
b1 $
b1 *
b110001 (
#815
b0 $
#820
b1 $
b0 *
b110010 (
#825
b0 $
#830
b1 $
b1 *
b110010 (
#835
b0 $
#840
b1 $
b0 *
b110011 (
#845
b0 $
#850
b1 $
b0 *
b110011 (
#855
b0 $
#860
b1 $
b0 *
b110011 (
#865
b0 $
#870
b1 $
b0 *
b110011 (
#875
b0 $
#880
b1 $
b1 *
b110011 (
#885
b0 $
#890
b1 $
b1 *
b110100 (
#895
b0 $
#900
b1 $
b0 *
b110101 (
#905
b0 $
#910
b1 $
b1 *
b110101 (
#915
b0 $
#920
b1 $
b0 *
b110110 (
#925
b0 $
#930
b1 $
b0 *
b110110 (
#935
b0 $
#940
b1 $
b0 *
b110110 (
#945
b0 $
#950
b1 $
b1 *
b110110 (
#955
b0 $
#960
b1 $
b1 *
b110111 (
#965
b0 $
#970
b1 $
b0 *
b111000 (
#975
b0 $
#980
b1 $
b1 *
b111000 (
#985
b0 $
#990
b1 $
b1 *
b111001 (
#995
b0 $
#1000
b1 $
b0 *
b111010 (
#1005
b0 $
#1010
b1 $
b1 *
b111010 (
#1015
b0 $
#1020
b1 $
b1 *
b111011 (
#1025
b0 $
#1030
b1 $
b0 *
b111100 (
#1035
b0 $
#1040
b1 $
b0 *
b111100 (
#1045
b0 $
#1050
b1 $
b0 *
b111100 (
#1055
b0 $
#1060
b1 $
b0 *
b111100 (
#1065
b0 $
#1070
b1 $
b0 *
b111100 (
#1075
b0 $
#1080
b1 $
b1 *
b111100 (
#1085
b0 $
#1090
b1 $
b0 *
b111101 (
#1095
b0 $
#1100
b1 $
b0 *
b111101 (
#1105
b0 $
#1110
b1 $
b1 *
b111101 (
#1115
b0 $
#1120
b1 $
b1 *
b111110 (
#1125
b0 $
#1130
b1 $
b0 *
b111111 (
#1135
b0 $
#1140
b1 $
b1 *
b111111 (
#1145
b0 $
#1150
b1 $
b1 *
b1000000 (
#1155
b0 $
#1160
b1 $
b0 *
b1000001 (
#1165
b0 $
#1170
b1 $
b0 *
b1000001 (
#1175
b0 $
#1180
b1 $
b0 *
b1000001 (
#1185
b0 $
#1190
b1 $
b1 *
b1000001 (
#1195
b0 $
#1200
b1 $
b0 *
b1000010 (
#1205
b0 $
#1210
b1 $
b1 *
b1000010 (
#1215
b0 $
#1220
b1 $
b1 *
b1000011 (
#1225
b0 $
#1230
b1 $
b0 *
b1000100 (
#1235
b0 $
#1240
b1 $
b0 *
b1000100 (
#1245
b0 $
#1250
b1 $
b0 *
b1000100 (
#1255
b0 $
#1260
b1 $
b1 *
b1000100 (
#1265
b0 $
#1270
b1 $
b0 *
b1000101 (
#1275
b0 $
#1280
b1 $
b0 *
b1000101 (
#1285
b0 $
#1290
b1 $
b0 *
b1000101 (
#1295
b0 $
#1300
b1 $
b0 *
b1000101 (
#1305
b0 $
#1310
b1 $
b1 *
b1000101 (
#1315
b0 $
#1320
b1 $
b0 *
b1000110 (
#1325
b0 $
#1330
b1 $
b1 *
b1000110 (
#1335
b0 $
#1340
b1 $
b1 *
b1000111 (
#1345
b0 $
#1350
b1 $
b0 *
b1001000 (
#1355
b0 $
#1360
b1 $
b0 *
b1001000 (
#1365
b0 $
#1370
b1 $
b1 *
b1001000 (
#1375
b0 $
#1380
b1 $
b0 *
b1001001 (
#1385
b0 $
#1390
b1 $
b0 *
b1001001 (
#1395
b0 $
#1400
b1 $
b1 *
b1001001 (
#1405
b0 $
#1410
b1 $
b1 *
b1001010 (
#1415
b0 $
#1420
b1 $
b0 *
b1001011 (
#1425
b0 $
#1430
b1 $
b1 *
b1001011 (
#1435
b0 $
#1440
b1 $
b1 *
b1001100 (
#1445
b0 $
#1450
b1 $
b0 *
b1001101 (
#1455
b0 $
#1460
b1 $
b1 *
b1001101 (
#1465
b0 $
#1470
b1 $
b1 *
b1001110 (
#1475
b0 $
#1480
b1 $
b0 *
b1001111 (
#1485
b0 $
#1490
b1 $
b1 *
b1001111 (
#1495
b0 $
#1500
b1 $
b0 *
b1010000 (
#1505
b0 $
#1510
b1 $
b0 *
b1010000 (
#1515
b0 $
#1520
b1 $
b1 *
b1010000 (
#1525
b0 $
#1530
b1 $
b1 *
b1010001 (
#1535
b0 $
#1540
b1 $
b1 *
b1010010 (
#1545
b0 $
#1550
b1 $
b1 *
b1010011 (
#1555
b0 $
#1560
b1 $
b0 *
b1010100 (
#1565
b0 $
#1570
b1 $
b1 *
b1010100 (
#1575
b0 $
#1580
b1 $
b0 *
b1010101 (
#1585
b0 $
#1590
b1 $
b1 *
b1010101 (
#1595
b0 $
#1600
b1 $
b1 *
b1010110 (
#1605
b0 $
#1610
b1 $
b1 *
b1010111 (
#1615
b0 $
#1620
b1 $
b0 *
b1011000 (
#1625
b0 $
#1630
b1 $
b0 *
b1011000 (
#1635
b0 $
#1640
b1 $
b1 *
b1011000 (
#1645
b0 $
#1650
b1 $
b1 *
b1011001 (
#1655
b0 $
#1660
b1 $
b1 *
b1011010 (
#1665
b0 $
#1670
b1 $
b0 *
b1011011 (
#1675
b0 $
#1680
b1 $
b1 *
b1011011 (
#1685
b0 $
#1690
b1 $
b0 *
b1011100 (
#1695
b0 $
#1700
b1 $
b0 *
b1011100 (
#1705
b0 $
#1710
b1 $
b0 *
b1011100 (
#1715
b0 $
#1720
b1 $
b1 *
b1011100 (
#1725
b0 $
#1730
b1 $
b0 *
b1011101 (
#1735
b0 $
#1740
b1 $
b1 *
b1011101 (
#1745
b0 $
#1750
b1 $
b0 *
b1011110 (
#1755
b0 $
#1760
b1 $
b0 *
b1011110 (
#1765
b0 $
#1770
b1 $
b0 *
b1011110 (
#1775
b0 $
#1780
b1 $
b0 *
b1011110 (
#1785
b0 $
#1790
b1 $
b0 *
b1011110 (
#1795
b0 $
#1800
b1 $
b0 *
b1011110 (
#1805
b0 $
#1810
b1 $
b0 *
b1011110 (
#1815
b0 $
#1820
b1 $
b0 *
b1011110 (
#1825
b0 $
#1830
b1 $
b0 *
b1011110 (
#1835
b0 $
#1840
b1 $
b0 *
b1011110 (
#1845
b0 $
#1850
b1 $
b1 *
b1011110 (
#1855
b0 $
#1860
b1 $
b1 *
b1011111 (
#1865
b0 $
#1870
b1 $
b1 *
b1100000 (
#1875
b0 $
#1880
b1 $
b0 *
b1100001 (
#1885
b0 $
#1890
b1 $
b1 *
b1100001 (
#1895
b0 $
#1900
b1 $
b0 *
b1100010 (
#1905
b0 $
#1910
b1 $
b1 *
b1100010 (
#1915
b0 $
#1920
b1 $
b0 *
b1100011 (
#1925
b0 $
#1930
b1 $
b1 *
b1100011 (
#1935
b0 $
#1940
b1 $
b0 *
b1100100 (
#1945
b0 $
#1950
b1 $
b1 *
b1100100 (
#1955
b0 $
#1960
b1 $
b1 *
b1100101 (
#1965
b0 $
#1970
b1 $
b0 *
b1100110 (
#1975
b0 $
#1980
b1 $
b1 *
b1100110 (
#1985
b0 $
#1990
b1 $
b1 *
b1100111 (
#1995
b0 $
